0ba18db0dbe71d59059fb2cec45c73c5aef80e714a05be2b76
3567de35fa371431584288db32143988de1ea86f06a9d16e5d
79eceef9e141a7f073781bc52d01f95c0c058faa1aca152fbc
b64a3d1ecc26efdad34f210053451e81374e88e4b103a7d3b2
719cc7efc253e8dd4b9710b9fb003980886fd393b0c04878a7
48fce9fc4c84bef525238b4539ead189ccbb6f9abaaf78c695
4f2ccc4ac02ed1f8a74db97ac8b5dbb067ca0f4ae46ffb1eea
e27cf5bd2c61cdcc80022091a4e5e37182dc1f0997e7a8060e
0d3286978a93809fd580be43e4819dd32bb8144199e33cf2ef
e30ec9f68e44743817603f7341c77d15f72c5511757434cdd4
df5894d7f750cd1376ffdbdc4e45db3f87e9c2a50912139acf
97b28c4dd3515dfd3d57da66d8f6cb5d100d04262941bd327b
dbd2c7a57c9cdbd444e58aa76506b4948a021d2e17088137ca
c640b0776c6ae07bc7a15f5038e1a3ead28cd292fcdc30d88c
d131574d2138320dca339ddee7261d112c102b72910bafa5c8
a4d65aba9315eeea74725c3ec038663954b52ce6d50373afb2
2cdbde74e6a30cf21e9bdefb9d76406d99f41ba2203d7ddb28
cf69cd0abac167411cd8785f5aab17ccb74f1f7c090f2c84d8
2be870c2249df7865cf836632ea20d513d7e71c6a34752ff7e
7792a8f857f299ef25833aee6bdb1ed98f5f53a8a664373ebe
6da2b3640b89f316d5830ae4cd7bd3f38d18933ee12ba7f475
a90f1dd4fa7e18bd4908cf464099d559138b4ba6432aba7c7a
f54c2b76401144b943e8af84d4e27480dca52a9ff1f12b9b78
9106baa29ba85f1d7021135a722205ff14e89df8951490e429
c3a82722aec5e73ad94dc19faa36834c1fa66f322bde52ccf0
cac287f657053b0f2970eb45058fcc10c4fc1e994b148eb8cb
028d476a687ef43af768fdad2198dadeb3ce6fa528af04c957
6f4d3651fa365e25203c19aefd5ae31256bf63e813067bcb69
d96672a0d02ff902824fbb7b49d0d752ddd67153cb1e920e70
a1a1834e3db8ec77cbe5405e036f66cdf8dfd7a5ea404f3f43
59b56c67eec1aae1c937fbf564ebff1fdf76266dd5633dd415
d77a9ccb7937f44b6f35d0c67aae77e9d5510647b2975f2ecb
779b546bcbd0e494526842394287af9ddc462ddd86a135c0a7
b9de9305b181f47f06023e123419965f280822ae6cbd2061a4
f5481f006e7013dd32e909101a855061422cfcbe86ac85f677
7a88b2a5d63712285ee114a3fdf8def6ffadb89b38b16f1f50
b666ed9f71e175f7becd03673ff893afa22ca81bb3f3901508
5b54ea0c2b919edf727babe646717d1251b6db473a4267cca1
c5c0e034068cc073dcfa5e72cc1dcc42101601d3d87e114ddf
7d74ee937d4966cafd6e4a9dd67e80dacd085adcf57814cc66
