65e014e0c727e0e5b232f717afa36311643731019194bb3a6c
b0d91449ee2fddae17678e08af452af15e954082103e7a53a9
e153f59addf21ae851200c3726aed2e862a89fd4cccb5fa651
9f8d9c8de844be7aa09a911469c3c3c7b4015a72a6e21c72ad
6f8e871add99f434dc9ab9a4a423af2d4caa3d0e4d179ff5e0
8356517d68efdfd948bcc0095172f9d6f19cc6918d010f57ea
d020c8f2d31db871c5f57d0e6b5cd851e065a289ac08eca4b0
f1bd0a8d1d91c1da53f0a23a9d94912e4effc1d19b9d6b7c2b
65870a99a88ef9e23abcc4df6dcd6d23b22a1a8e0f90d48f46
12f9d843b258d7d4d8d2ed7b597023373051d2314645cae143
46808c032b5f5ab327b4540e1b1887bc5fd5ea1f703e77b98c
9e9be4a3a86b91533023795f04aa03240d9fc511a6f4d4656c
fd3b3b46eab3506c94ca764560cbfce46597713759b3723f1e
a169ca2c645801984cd265e0c789cd026072bc527cbead459e
b059de2028595779c92d5b875986dcd1c839771537b8a02cb7
1d41899443dd58310e5a71c0a6ba51fb6138a715dd700d3d6f
58210a24216eb618fca77d915de3324dd7c684debfcd08b45f
3219ebde59c6a4d35502db9e32163a65b8ffcbcb051d404141
2823170fe14ce2295348b696c6efe8f5f6d4cd2375a7fa3652
43b276122a0736df20d8a2637141c9dd08666b21068bbe8fe5
cd1f7e3c8f2e9d912cd4195625e956fee0b9507b7dd094643f
2cb1a461e993346dcb0487f7b95dd7533dd63e935afbce3693
2f5d31a5e850ab341bdcd37ca2ba0ac3593d39c2167ec21644
d540a6cf6996b31c043334b3073e499c162824d3e643516d33
a6ec326bca8fff73a10d97aa655f0e8884aac71939bbfeaa44
8d47e8af1381558d44c1ad026c1f33fb63bd6822c89324254d
a96798d07adf37adab1a74429b00ae9be99ec5501e37cdea72
9bb49da28bd6e39aed3f927cba3e9322c4cb8b7a2e8a879c85
b6ee315f28b2e50eb7b4057746fd61bfa69f8ce4f488fde7a7
aaabbb47378e87530813953ac8232f7a334fc540bc4a806631
92ef5d088ff585bb60004808df9f7b1c81b8da3d55be267ad0
34d2c4cf6c85afd1af868f9cde9048cf24474c1e54c419cc7a
e773c1403dff81e39197b826616f65705e9154b41a82c83d3f
f8fa9af07677f5b62b790cfdd2aae81e618a90de3927e361d7
fd79e48205472c520c9b7c435e2510ee6aaf92cf0f0aac47cf
a9acf23a456160a87adf0e0d13e30c14ac7c129a25f42c16a3
bae700229c2886f9ee568d2f8d2bd17756f350901fb01bdeff
dadc0b68828ae2c2b1617505ec5814e4fb0f0090baec00c942
86fca6eb900e8ae93d1394761f431f33fd322156bb1ba8d76a
ed9f147fca1df2e85986647d5c7f2ef1eb85997314a3f2dff1
