8523c4ce5ae12b5dc7f29bf4a0a7af25a87ea186ba4d62e2fc
aed19a2cf303363c770b9fc76a3854471b0f3cd1f51a76479d
d8bc2fd76891fd3a3e0c02d8ace0cd8974653199b9adfadfcf
be6d2861255e14025968dc03532a67f70914fa670dd58192c3
f98d29ca58ae04e3e94a7840e0ce3ee35f34b3952c8552a164
fb63a8461266bf2a19710051f287706cdc46e487e15c525a4d
619b0dbd079f7cceeed5a27c648afaa9925a5dc938d72b4c18
799478eecd38011d5b4b83451442cb4a071863979861c8302b
4927b4661f7f2ffc3a03d468ae12244862656f6dd8a9bf648b
bb4bb9b5515d2f624682e7ba89ac99b9ead7c08069e72086c2
7ae813e84b93a64a81c6608b562e09d21cef97174be9bf9d89
f7e8f45e090001edff93146031786167f4e324846c16040d82
2d063fd9eb025627902d255bee062b1b5c21fe167001fff5ab
718a9fa3d7cf1603191bb1d80dc27ef64627ba983c36b45af0
86c0124df4aa2faca08f7fb008af7888e1a85d0615829383db
ee7be278022be2d9f6516bf0e3d0970f8e93743c5729e0a006
a7db163204f0c5c9f6713430764aa5794dc4863e586141f664
01a742577ba6b3b01368f5c250ab206983253d031728e67a66
50e436a0097e83fd18a54926e4e2cd41bc78cc93bc6b8d9f47
b6b45bb742e3e02cdf4ba8635a2c652471d428e8aac382d6d1
d8848cc6b842c1a029d9ffae3d886675bac22ec8d878c3b3a3
5132d708bf3ddc7b0f1821937d243dde23539cf3b002653647
aeb6cc34b8c57c579d141adaa3546ebcb7a1f7e4056f459297
b48bef987ce49767216a850866d13abfdcc0c88e91f15fac88
ed5b445d030582b63f3657984a165d35ea4cfcfe33732fa8b1
b08cae293975e74a68e8bd1ae4372acd237f86fb231a06afe7
2c6cee9a171b6f2d2295bdbeba1ba83557c38468b2e89724e8
5bfecf3735bfeba70493c4c2b5baddfccac4a311ddc82e8a42
342a6e7078f3b5806d59a7a34b24728da0bf31ee582bc568e2
b7289e876377795f0af8d003114a73731a824a86a5f548e98a
5121a61f1a2455adab5809c079341754a0815c7a68a18d9f77
031a6a82f46f6853f8a169119f516f30e59f9b2bb70e038e0d
973d7355c03aaf05659e7c456c49a3ed7281bcb16519089c6e
17a33a9f8918c62581fded76e656849bc4577edff0f3e4795c
389ebdc056fb0f8a0becd16fc0cd630357c6c9a8831569f257
053974deec1fae87193319d68ff3eb0f20204013a1d1c3b847
594a5c876e08f9dc6f9a1376c6d1347ccdb4d934db553792bf
1edf216df1171487e1927b96a4b92e646df4d9b2a6038d4dc9
b879beabbb50d7746c03253d97889a8a414843e7e7f5bdd920
50a3c1977cd5c8517ce0d9758fb8b44e60a137bf1042b6f638
