e5ca84f5d7988fc47e0ea344c83c3ffb506f8310d692876c39
51635c52c178998397dcf0c16147995dc121b0102464f1c0bb
e6d058d5378ccff32efa33569d6ec9b1779725c93a6d1424a8
d38b2f110352c1c00245ee4394afb1bc4e53dedcf5a87a805f
89851aead341421118bae6384974d07ec0f9a9732229a47526
cec944c63120e2082a6d51f5e5cc85b889c860e9b177ebf7ea
7862913de861b51abdab7865760178f35a28f1f610cf5c6a8b
a5d65c3db46f9551443fa1b38beb9eb52a402970c35ae2bfd3
32c3da72200035cddb3821dcd6b836b59d90f8f75dd36befab
20262a4126294f0ba3c5d6292b96b1370c9087aad4288297f7
883ce2e071cd5ba58bc851fc349afcc9f39e1039d3e273f7f6
85fc9b547656f972e9994db225fb7d85474d5ecf364413b2f5
c5080324da48cf827069c26692334393df5a1c10582ae780b2
d3ce45fee1ec23822be9a5311d65e0803f9a8066da1483eddf
d922881edd766e3ba8de99c5a06fcb8149d3f6bc08677e97cb
38de74f9675dc83a851e998ca5f635d41b5d45db24615217a1
093294ecf4790bcdf01992b26b9faa655c4a506f0fda2d93da
5ad54a1c5df99c2e2c30a345f1c7098d9ee0ea314488563f7c
2af2df036f8e917fa3f8518411ede6015acb3a1ef9f7432ef0
bb418d466aa7d1c32e32b09e437e8178d72c0066b0f6657542
9d20aa11310d443287835c68fa86ca53f9dd0be5b1be935206
a1fdcbcd5c7b74d76453e8318161c750e86070f755592745a3
478b7c6c77644b674cb630bcb1194256c0cff5f2a223fcf9e8
d2e13cea2409beaf2c3a3f78da9429dadfca65878b9218dc9a
5db83458fa692c65e376b473aa0f15d6ef7558d24a662cc982
8d1b1bffbe021267a872e9fe843fd04af7c17a4313308a5f58
05bccb4cdc3e87a8ae1618450c748139c1bad4b7b14d80bdc1
0c0928524b2bc2bc323befbfa05c57a2a035b96bca1d74d244
878578a3f57446c1f046eb9a3898cd3ae8cef3e5e9fca98d37
68d072fbd38898d0e6c3beed73892b2c5bb99ac2f298ac25bd
7062b9d591f63dfe7ebc5cfdb03fb22a31eccf4b39db22bd75
f0102fe4a911cd7cbbe642e164250cbae763ea39a70a067225
ecfcfcee27be15d851c4be3f689e44e6a472c2e5c773cc4eed
2260633fc7782681bf22986f3059713cae872b8a65a29ab157
9821acbe7c59d23b093619fc96f61ea996fc616496728fcb68
a867fe2fc58e9504af440113705b93ede846ed793957d1fd8c
3456c85637d15a50534a210c2095f02f9855311d5845d94bac
03996ff539aa96e6d62b1cc82cc1874c434ee973e2e2838817
4d00b54efa61a4efc8110e32cde955999cdf92794d03338e12
c75060888c159d75a53270b08a8e88090954c0597b34f74626
